{
  "twitter_consumer_key": "2pP2gXGtguvA0f36xNGhtLjlW",
  "twitter_consumer_secret": "aNUwsiPp8g6TbyvzvcuO61mMpr7pLJgtPY0BIzWS99FDULkoGL",
  "twitter_access_token_key": "904640219609223170-69V2Mv5NacDmS8kYbWU5aWf8ScyBwH7",
  "access_token_secret": "dzAMvob9f2NDyRkFeA7Pk8a8xnOBV2E9ClMJIZsfAinzY",
  "keywords": [
    "Vikings",
    "hack",
    "data",
    "email",
    "source",
    "bitcoins",
    "wallet",
    "phone"
  ]
}
